<svg width="32" height="32" viewBox="0 0 32 32" fill="none" xmlns="http://www.w3.org/2000/svg">
<g clip-path="url(#clip0)">
<path d="M16.5615 0V14.5965L30.2429 9.51018C28.1175 3.79291 22.6611 9.38554e-05 16.5615 0V0Z" fill="url(#paint0_linear)"/>
<path d="M10.3018 31.3993C13.1653 32.267 16.2319 32.1902 19.0484 31.1804C15.7214 28.4286 15.0145 23.6064 17.4118 20.0156C19.8091 16.4247 24.5338 15.2287 28.3509 17.2464C28.2951 16.0076 28.0723 14.782 27.6884 13.6028L14.7761 18.3972L10.3018 31.3993Z" fill="url(#paint1_linear)"/>
<path d="M21.6141 22.4561C21.9242 22.4561 22.1755 22.2048 22.1755 21.8947C22.1755 21.5847 21.9242 21.3333 21.6141 21.3333C21.3041 21.3333 21.0527 21.5847 21.0527 21.8947C21.0527 22.2048 21.3041 22.4561 21.6141 22.4561Z" fill="url(#paint2_linear)"/>
<path d="M9.26317 31.0344L13.586 18.3691L0.538962 15.3038C-0.736839 21.9667 2.93557 28.5884 9.26317 31.0344Z" fill="url(#paint3_linear)"/>
<path d="M0.802734 14.2091L13.7543 17.2575V3.92981C7.65357 4.1548 2.40708 8.31879 0.802734 14.2091Z" fill="url(#paint4_linear)"/>
<path d="M24.421 17.4035C20.3903 17.4035 17.1228 20.671 17.1228 24.7018C17.1228 28.7325 20.3903 32 24.421 32C28.4518 32 31.7193 28.7325 31.7193 24.7018C31.7193 22.7661 30.9504 20.9098 29.5817 19.5411C28.213 18.1724 26.3567 17.4035 24.421 17.4035ZM19.9298 21.8947C19.9298 20.9646 20.6839 20.2105 21.614 20.2105C22.5442 20.2105 23.2982 20.9646 23.2982 21.8947C23.2982 22.8249 22.5442 23.579 21.614 23.579C20.6839 23.579 19.9298 22.8249 19.9298 21.8947ZM21.4512 28.4688C21.3088 28.6112 21.1013 28.6668 20.9067 28.6147C20.7122 28.5626 20.5603 28.4106 20.5081 28.2161C20.456 28.0216 20.5116 27.814 20.654 27.6716L27.3909 20.9347C27.5333 20.7923 27.7408 20.7367 27.9354 20.7888C28.1299 20.841 28.2818 20.9929 28.334 21.1874C28.3861 21.382 28.3305 21.5895 28.1881 21.7319L21.4512 28.4688ZM27.2281 29.193C26.2979 29.193 25.5439 28.439 25.5439 27.5088C25.5439 26.5786 26.2979 25.8246 27.2281 25.8246C28.1582 25.8246 28.9123 26.5786 28.9123 27.5088C28.9123 28.439 28.1582 29.193 27.2281 29.193Z" fill="url(#paint5_linear)"/>
<path d="M27.2279 28.0701C27.538 28.0701 27.7893 27.8188 27.7893 27.5087C27.7893 27.1987 27.538 26.9473 27.2279 26.9473C26.9179 26.9473 26.6665 27.1987 26.6665 27.5087C26.6665 27.8188 26.9179 28.0701 27.2279 28.0701Z" fill="url(#paint6_linear)"/>
</g>
<defs>
<linearGradient id="paint0_linear" x1="16.7735" y1="7.21804" x2="30.2429" y2="7.21804" gradientUnits="userSpaceOnUse">
<stop stop-color="#FFCC00"/>
<stop offset="1" stop-color="#FFAA00"/>
</linearGradient>
<linearGradient id="paint1_linear" x1="10.5814" y1="22.6995" x2="28.3509" y2="22.6995" gradientUnits="userSpaceOnUse">
<stop stop-color="#FFCC00"/>
<stop offset="1" stop-color="#FFAA00"/>
</linearGradient>
<linearGradient id="paint2_linear" x1="21.0701" y1="21.8886" x2="22.1755" y2="21.8886" gradientUnits="userSpaceOnUse">
<stop stop-color="#FFCC00"/>
<stop offset="1" stop-color="#FFAA00"/>
</linearGradient>
<linearGradient id="paint3_linear" x1="0.493187" y1="23.0827" x2="13.586" y2="23.0827" gradientUnits="userSpaceOnUse">
<stop stop-color="#FFCC00"/>
<stop offset="1" stop-color="#FFAA00"/>
</linearGradient>
<linearGradient id="paint4_linear" x1="1.00343" y1="10.5204" x2="13.7543" y2="10.5204" gradientUnits="userSpaceOnUse">
<stop stop-color="#FFCC00"/>
<stop offset="1" stop-color="#FFAA00"/>
</linearGradient>
<linearGradient id="paint5_linear" x1="17.349" y1="24.6216" x2="31.7193" y2="24.6216" gradientUnits="userSpaceOnUse">
<stop stop-color="#FFCC00"/>
<stop offset="1" stop-color="#FFAA00"/>
</linearGradient>
<linearGradient id="paint6_linear" x1="26.6839" y1="27.5026" x2="27.7893" y2="27.5026" gradientUnits="userSpaceOnUse">
<stop stop-color="#FFCC00"/>
<stop offset="1" stop-color="#FFAA00"/>
</linearGradient>
<clipPath id="clip0">
<rect width="32" height="32" fill="white"/>
</clipPath>
</defs>
</svg>
