<svg width="32" height="32" viewBox="0 0 32 32" fill="none" xmlns="http://www.w3.org/2000/svg">
<path d="M16 0C7.21187 0 0 7.21187 0 16C0 24.7881 7.21187 32 16 32C24.7881 32 32 24.7881 32 16C32 7.21187 24.7881 0 16 0ZM16 3.75C21.5273 3.75 26.2623 7.51469 27.7493 12.567C27.6642 12.3503 27.502 12.163 27.2741 12.0577C24.6904 10.8621 20.5859 9.4375 16 9.4375C11.4141 9.4375 7.30956 10.8621 4.72594 12.0577C4.498 12.1631 4.33581 12.3503 4.25069 12.567C5.73775 7.51469 10.4727 3.75 16 3.75ZM3.99219 18.4139C4.08612 18.7661 4.38169 19.0461 4.76531 19.1009L7.01775 19.414C9.88612 19.8232 12.1768 22.1139 12.586 24.9823L12.8991 27.2347C12.9466 27.567 13.1667 27.8268 13.4527 27.9531C8.73438 26.9409 4.94844 23.1528 3.99219 18.4139ZM16 18.8125C14.4491 18.8125 13.1875 17.5509 13.1875 16C13.1875 14.4491 14.4491 13.1875 16 13.1875C17.5509 13.1875 18.8125 14.4491 18.8125 16C18.8125 17.5509 17.5509 18.8125 16 18.8125ZM18.5473 27.953C18.8333 27.8267 19.0534 27.567 19.1009 27.2346L19.414 24.9822C19.8232 22.1138 22.1139 19.8232 24.9823 19.4139L27.2347 19.1008C27.6183 19.046 27.9139 18.7661 28.0079 18.4138C27.0516 23.1528 23.2656 26.9409 18.5473 27.953Z" fill="url(#paint0_linear)"/>
<path d="M16 15.0625C15.4827 15.0625 15.0625 15.4827 15.0625 16C15.0625 16.5173 15.4827 16.9375 16 16.9375C16.5173 16.9375 16.9375 16.5173 16.9375 16C16.9375 15.4827 16.5173 15.0625 16 15.0625Z" fill="url(#paint1_linear)"/>
<defs>
<linearGradient id="paint0_linear" x1="0.495868" y1="15.8242" x2="32" y2="15.8242" gradientUnits="userSpaceOnUse">
<stop stop-color="#FFCC00"/>
<stop offset="1" stop-color="#FFAA00"/>
</linearGradient>
<linearGradient id="paint1_linear" x1="15.0916" y1="15.9897" x2="16.9375" y2="15.9897" gradientUnits="userSpaceOnUse">
<stop stop-color="#FFCC00"/>
<stop offset="1" stop-color="#FFAA00"/>
</linearGradient>
</defs>
</svg>
